{
	"executors": [
		{
			"title": "Wine",
			"runner": "wine",
			"args": ["<FILE_PATH>"],
			"game_folder":"games/wine"
		},
		{
			"title": "PC",
			"runner": "<FILE_PATH>",
			"args": [],
			"game_folder":"games/pc"
		},
		{
			"title": "N64",
			"runner": "mupen64plus",
			"args": ["--resolution 1920x1080 --gfx mupen64plus-video-glide64mk2.so", "<FILE_PATH>"],
			"game_folder":"games/n64"
		},
		{
			"title": "Gamecube/Wii",
			"runner": "dolphin-emu",
			"args": ["-e<FILE_PATH>"],
			"game_folder":"games/GC"
		},
		{
			"title": "3DS",
			"runner": "desmume",
			"args": ["<FILE_PATH>"],
			"game_folder":"games/3DS"
		},
		{
			"title": "GBA",
			"runner": "mgba-qt",
			"args": ["<FILE_PATH>", "-f", "-C shader=/usr/share/mgba/shaders/xbr-lv2.shader"],
			"game_folder":"games/GBA"
		},
		{
			"title": "Steam",
			"runner": "firejail",
			"args": ["--noprofile","--net=none","<FILE_PATH>"],
			"game_folder":"games/Steam",
			"name_filter":"x86"
		},
		{
			"title":"Snes",
			"runner":"bsnes",
			"args":["<FILE_PATH>"],
			"game_folder":"games/SNES",
			"name_filter":"sfc"	
		},
	
	]
}

